﻿<?xml version="1.0" encoding="utf-8"?>
<svg version="1.1" xmlns:xlink="http://www.w3.org/1999/xlink" width="384px" height="144px" xmlns="http://www.w3.org/2000/svg">
  <g>
    <path d="M 1 1  L 383 1  L 383 143  L 1 143  L 1 1  Z " fill-rule="nonzero" fill="#ffffff" stroke="none" fill-opacity="0" />
  </g>
</svg>